Part B dataset
…
# review_tokens_all$token_length <- nchar(review_tokens_all$clean)
# 
# # Lets have a look on the distribution 
# review_tokens_all %>% group_by(token_length) %>% summarise(total =n())

#filter out non english words
review_tokens_all$word <- iconv(review_tokens_all$word,from = 'UTF-8', to = 'ASCII//TRANSLIT')
review_tokens_all$clean<- gsub('[[:punct:]]+','', review_tokens_all$word)

review_tokens_all$token_length <- nchar(review_tokens_all$clean)

# Lets have a look on the distribution 
review_tokens_all %>% group_by(token_length) %>% summarise(total =n())

## # A tibble: 26 x 2
##    token_length  total
##           <int>  <int>
##  1            0     64
##  2            1   5904
##  3            2  40991
##  4            3 169624
##  5            4 502564
##  6            5 509993
##  7            6 500126
##  8            7 452466
##  9            8 353169
## 10            9 255900
## # ... with 16 more rows
…
# # Filter English descriptions
# review_tokens_all <- review_tokens_all %>%
#   filter(language =="en")

# Remove tokens with length less than 3
review_tokens_all <- review_tokens_all %>% 
  filter(token_length>3)

# Lets have a look at the distribution of tokens again 
review_tokens_all %>% group_by(token_length) %>% 
  summarise(total =n()) %>% 
  arrange(desc(token_length))

## # A tibble: 21 x 2
##    token_length total
##           <int> <int>
##  1           39     1
##  2           24     1
##  3           22     1
##  4           21     2
##  5           20     4
##  6           19     2
##  7           18    41
##  8           17   179
##  9           16   367
## 10           15  4031
## # ... with 11 more rows
…
# Remove also very common terms those with tf-idf <0.001 as shown in the chart below 
review_tokens_all_tf_idf <- review_tokens_all_tf_idf %>% 
  filter(tf_idf>0.001)

review_tokens_all %>% group_by(word) %>% 
  summarise(total =n()) %>% 
  arrange(desc(total)) %>% 
  top_n(40)

## # A tibble: 40 x 2
##    word        total
##    <chr>       <int>
##  1 stay        12994
##  2 location    11979
##  3 clean       11934
##  4 apartment   11795
##  5 host        11303
##  6 nice        11047
##  7 recommend   10947
##  8 comfortable 10379
##  9 subway      10282
## 10 close       10209
## # ... with 30 more rows

# Add manhattan to the stopword dictionary

Description tokens

# Step 11
# Calculate the token length 
description_tokens_all$word <- iconv(description_tokens_all$word,from = 'UTF-8', to = 'ASCII//TRANSLIT')
description_tokens_all$clean<- gsub('[[:punct:]]+','', description_tokens_all$word)
description_tokens_all$token_length <- nchar(description_tokens_all$clean)

# Look at the distribution 
description_tokens_all %>% group_by(token_length) %>% summarise(total =n())

## # A tibble: 26 x 2
##    token_length  total
##           <int>  <int>
##  1            2  43002
##  2            3  65064
##  3            4 187669
##  4            5 216707
##  5            6 192299
##  6            7 175738
##  7            8 136915
##  8            9  86674
##  9           10  31834
## 10           11  30416
## # ... with 16 more rows

# Remove tokens with 1 and 2 characters
description_tokens_all <- description_tokens_all %>% 
  filter(token_length>3)

# Look at the distribution of tokens again on the oposite side 
description_tokens_all %>% group_by(token_length) %>% 
  summarise(total =n()) %>% 
  arrange(desc(token_length))

## # A tibble: 24 x 2
##    token_length total
##           <int> <int>
##  1           33     1
##  2           26     1
##  3           25     1
##  4           24     1
##  5           23     1
##  6           22     1
##  7           21     2
##  8           20     3
##  9           19     5
## 10           18    14
## # ... with 14 more rows
…
description_tokens_all %>% group_by(word) %>% 
  summarise(total =n()) %>% 
  arrange(desc(total)) %>% 
  top_n(40)

## # A tibble: 40 x 2
##    word      total
##    <chr>     <int>
##  1 space     18578
##  2 apartment 16863
##  3 kitchen   13802
##  4 bedroom   13367
##  5 access    12412
##  6 guest     10876
##  7 living     9392
##  8 manhattan  9312
##  9 private    9208
## 10 bathroom   9184
## # ... with 30 more rows
…
