part C
…
newyorkfit_topics<-tidy(newyorkfit,matrix="beta")

#We get the top 10 terms:
  
newyorkfit_terms<-newyorkfit_topics %>%
  group_by(topic) %>%
  slice_max(beta,n=10) %>%
  ungroup() %>%
  arrange(topic,desc(beta))
newyorkfit_terms

## # A tibble: 120 x 3
##    topic term          beta
##    <int> <chr>        <dbl>
##  1     1 room        0.0262
##  2     1 nice        0.0204
##  3     1 comfortable 0.0150
##  4     1 subway      0.0144
##  5     1 really      0.0129
##  6     1 good        0.0125
##  7     1 time        0.0124
##  8     1 close       0.0115
##  9     1 train       0.0109
## 10     1 easy        0.0106
## # ... with 110 more rows
…
newyorkfit_topics<-tidy(newyorkfit,matrix="beta")

#And we get the top 10 terms:
  
newyorkfit_terms<-newyorkfit_topics %>%
  group_by(topic) %>%
  slice_max(beta,n=10) %>%
  ungroup() %>%
  arrange(topic,desc(beta))
newyorkfit_terms

## # A tibble: 80 x 3
##    topic term         beta
##    <int> <chr>       <dbl>
##  1     1 space      0.0229
##  2     1 amazing    0.0222
##  3     1 super      0.0187
##  4     1 beautiful  0.0179
##  5     1 perfect    0.0175
##  6     1 host       0.0173
##  7     1 definitely 0.0161
##  8     1 easy       0.0157
##  9     1 view       0.0142
## 10     1 restaurant 0.0133
## # ... with 70 more rows
…
